#
## Alias OBJ Material File
# Exported from SketchUp, (c) 2000-2012 Trimble Navigation Limited

newmtl pine_wood_gal
Ka 0.000000 0.000000 0.000000
Kd 0.811765 0.584314 0.333333
Ks 0.330000 0.330000 0.330000
map_Kd WoodenCrate/pine_wood_gal.jpg

